Predicting Algae Blooms
…
## The following objects are masked from 'package:stats':
## 
##     filter, lag

## The following objects are masked from 'package:base':
## 
##     intersect, setdiff, setequal, union

library(rpart)
data(algae, package="DMwR2")
algae

## # A tibble: 200 x 18
##    season size  speed   mxPH  mnO2    Cl    NO3   NH4  oPO4   PO4  Chla    a1
##    <fct>  <fct> <fct>  <dbl> <dbl> <dbl>  <dbl> <dbl> <dbl> <dbl> <dbl> <dbl>
##  1 winter small medium  8      9.8  60.8  6.24  578   105   170   50      0  
##  2 spring small medium  8.35   8    57.8  1.29  370   429.  559.   1.3    1.4
##  3 autumn small medium  8.1   11.4  40.0  5.33  347.  126.  187.  15.6    3.3
##  4 spring small medium  8.07   4.8  77.4  2.30   98.2  61.2 139.   1.4    3.1
##  5 autumn small medium  8.06   9    55.4 10.4   234.   58.2  97.6 10.5    9.2
##  6 winter small high    8.25  13.1  65.8  9.25  430    18.2  56.7 28.4   15.1
##  7 summer small high    8.15  10.3  73.2  1.54  110    61.2 112.   3.2    2.4
##  8 autumn small high    8.05  10.6  59.1  4.99  206.   44.7  77.4  6.9   18.2
##  9 winter small medium  8.7    3.4  22.0  0.886 103.   36.3  71    5.54  25.4
## 10 winter small high    7.93   9.9   8    1.39    5.8  27.2  46.6  0.8   17  
## # ... with 190 more rows, and 6 more variables: a2 <dbl>, a3 <dbl>, a4 <dbl>,
## #   a5 <dbl>, a6 <dbl>, a7 <dbl>

tibble::as_tibble(algae)

## # A tibble: 200 x 18
##    season size  speed   mxPH  mnO2    Cl    NO3   NH4  oPO4   PO4  Chla    a1
##    <fct>  <fct> <fct>  <dbl> <dbl> <dbl>  <dbl> <dbl> <dbl> <dbl> <dbl> <dbl>
##  1 winter small medium  8      9.8  60.8  6.24  578   105   170   50      0  
##  2 spring small medium  8.35   8    57.8  1.29  370   429.  559.   1.3    1.4
##  3 autumn small medium  8.1   11.4  40.0  5.33  347.  126.  187.  15.6    3.3
##  4 spring small medium  8.07   4.8  77.4  2.30   98.2  61.2 139.   1.4    3.1
##  5 autumn small medium  8.06   9    55.4 10.4   234.   58.2  97.6 10.5    9.2
##  6 winter small high    8.25  13.1  65.8  9.25  430    18.2  56.7 28.4   15.1
##  7 summer small high    8.15  10.3  73.2  1.54  110    61.2 112.   3.2    2.4
##  8 autumn small high    8.05  10.6  59.1  4.99  206.   44.7  77.4  6.9   18.2
##  9 winter small medium  8.7    3.4  22.0  0.886 103.   36.3  71    5.54  25.4
## 10 winter small high    7.93   9.9   8    1.39    5.8  27.2  46.6  0.8   17  
## # ... with 190 more rows, and 6 more variables: a2 <dbl>, a3 <dbl>, a4 <dbl>,
## #   a5 <dbl>, a6 <dbl>, a7 <dbl>

3.2. Tiền xử lí

Vì dữ liệu chứa nhiều giá trị chưa biết ‘NA’ nên ta cần thực hiện tiền xử lí trước khi thực hiện dự đoán. Qua quan sát ban đầu, ta thấy rằng hai đối tượng ở hàng 62 và 199 chứa nhiều giá trị ‘NA’(>20% tổng các biến) nên ta loại bỏ hai đối tượng này. Tiếp theo, ta sử dụng knnImputation() để tính toán và điền vào các giá trị ‘NA’. knnImputation() sử dụng một biến thể của khoảng cách Euclide để tìm k(mặc định là 10) lân cận gần nhất của bất kỳ trường hợp nào, sau đó tính toán và điền vào giá trị chưa biết. Có hai lựa chọn tính toán theo knnImputation(): một là tính toán trung bình của các giá trị của k láng giềng gần nhất để lấp đầy khoảng trống, hai là sử dụng giá trị trung bình có trọng số của các giá trị lân cận, trong đó trọng lượng giảm khi khoảng cách đến trường hợp của những người hàng xóm tăng lên. Ở đây, chúng em sử dụng cách thứ hai meth = ‘weightAvg’, cũng là lựa chọn mặc định.

data(algae, package="DMwR2")
manyNAs(algae)

## [1]  62 199

algae <-  algae[-manyNAs(algae), ]
clean.algae <- knnImputation(algae, k = 10) #làm sach dữ liệu
clean.algae

## # A tibble: 198 x 18
##    season size  speed   mxPH  mnO2    Cl    NO3   NH4  oPO4   PO4  Chla    a1
##    <fct>  <fct> <fct>  <dbl> <dbl> <dbl>  <dbl> <dbl> <dbl> <dbl> <dbl> <dbl>
##  1 winter small medium  8      9.8  60.8  6.24  578   105   170   50      0  
##  2 spring small medium  8.35   8    57.8  1.29  370   429.  559.   1.3    1.4
##  3 autumn small medium  8.1   11.4  40.0  5.33  347.  126.  187.  15.6    3.3
##  4 spring small medium  8.07   4.8  77.4  2.30   98.2  61.2 139.   1.4    3.1
##  5 autumn small medium  8.06   9    55.4 10.4   234.   58.2  97.6 10.5    9.2
##  6 winter small high    8.25  13.1  65.8  9.25  430    18.2  56.7 28.4   15.1
##  7 summer small high    8.15  10.3  73.2  1.54  110    61.2 112.   3.2    2.4
##  8 autumn small high    8.05  10.6  59.1  4.99  206.   44.7  77.4  6.9   18.2
##  9 winter small medium  8.7    3.4  22.0  0.886 103.   36.3  71    5.54  25.4
## 10 winter small high    7.93   9.9   8    1.39    5.8  27.2  46.6  0.8   17  
## # ... with 188 more rows, and 6 more variables: a2 <dbl>, a3 <dbl>, a4 <dbl>,
## #   a5 <dbl>, a6 <dbl>, a7 <dbl>
…
